[
    {
        "%vlocity_namespace%__DomainObjectAPIName__c": "Contact",
        "%vlocity_namespace%__DomainObjectCreationOrder__c": 1,
        "%vlocity_namespace%__DomainObjectFieldAPIName__c": "%vlocity_namespace%__SSN__c",
        "%vlocity_namespace%__InterfaceFieldAPIName__c": "personDetails:identityInfoBlock:socialSecurityNumber",
        "%vlocity_namespace%__IsDisabled__c": false,
        "%vlocity_namespace%__IsRequiredForUpsert__c": false,
        "%vlocity_namespace%__MapId__c": "DRUpdateNonResidentialPersonCustom4758",
        "%vlocity_namespace%__UpsertKey__c": false,
        "Name": "DRUpdateNonResidentialPerson",
        "VlocityDataPackType": "SObject",
        "VlocityRecordSObjectType": "%vlocity_namespace%__DRMapItem__c"
    },
    {
        "%vlocity_namespace%__DomainObjectAPIName__c": "Contact",
        "%vlocity_namespace%__DomainObjectCreationOrder__c": 1,
        "%vlocity_namespace%__DomainObjectFieldAPIName__c": "%vlocity_namespace%__TaxId__c",
        "%vlocity_namespace%__InterfaceFieldAPIName__c": "personDetails:identityInfoBlock:taxId",
        "%vlocity_namespace%__IsDisabled__c": false,
        "%vlocity_namespace%__IsRequiredForUpsert__c": false,
        "%vlocity_namespace%__MapId__c": "DRUpdateNonResidentialPersonCustom6908",
        "%vlocity_namespace%__UpsertKey__c": false,
        "Name": "DRUpdateNonResidentialPerson",
        "VlocityDataPackType": "SObject",
        "VlocityRecordSObjectType": "%vlocity_namespace%__DRMapItem__c"
    },
    {
        "%vlocity_namespace%__DomainObjectAPIName__c": "Contact",
        "%vlocity_namespace%__DomainObjectCreationOrder__c": 1,
        "%vlocity_namespace%__DomainObjectFieldAPIName__c": "ADDRESS3__c",
        "%vlocity_namespace%__InterfaceFieldAPIName__c": "personDetails:addressInformation:addressLine3",
        "%vlocity_namespace%__IsDisabled__c": false,
        "%vlocity_namespace%__IsRequiredForUpsert__c": false,
        "%vlocity_namespace%__MapId__c": "DRUpdateNonResidentialPersonCustom794",
        "%vlocity_namespace%__UpsertKey__c": false,
        "Name": "DRUpdateNonResidentialPerson",
        "VlocityDataPackType": "SObject",
        "VlocityRecordSObjectType": "%vlocity_namespace%__DRMapItem__c"
    },
    {
        "%vlocity_namespace%__DomainObjectAPIName__c": "Contact",
        "%vlocity_namespace%__DomainObjectCreationOrder__c": 1,
        "%vlocity_namespace%__DomainObjectFieldAPIName__c": "Address_Line_1__c",
        "%vlocity_namespace%__InterfaceFieldAPIName__c": "personDetails:addressInformation:addressLine1",
        "%vlocity_namespace%__IsDisabled__c": false,
        "%vlocity_namespace%__IsRequiredForUpsert__c": false,
        "%vlocity_namespace%__MapId__c": "DRUpdateNonResidentialPersonCustom4201",
        "%vlocity_namespace%__UpsertKey__c": false,
        "Name": "DRUpdateNonResidentialPerson",
        "VlocityDataPackType": "SObject",
        "VlocityRecordSObjectType": "%vlocity_namespace%__DRMapItem__c"
    },
    {
        "%vlocity_namespace%__DomainObjectAPIName__c": "Contact",
        "%vlocity_namespace%__DomainObjectCreationOrder__c": 1,
        "%vlocity_namespace%__DomainObjectFieldAPIName__c": "Address_Line_2__c",
        "%vlocity_namespace%__InterfaceFieldAPIName__c": "personDetails:addressInformation:addressLine2",
        "%vlocity_namespace%__IsDisabled__c": false,
        "%vlocity_namespace%__IsRequiredForUpsert__c": false,
        "%vlocity_namespace%__MapId__c": "DRUpdateNonResidentialPersonCustom8996",
        "%vlocity_namespace%__UpsertKey__c": false,
        "Name": "DRUpdateNonResidentialPerson",
        "VlocityDataPackType": "SObject",
        "VlocityRecordSObjectType": "%vlocity_namespace%__DRMapItem__c"
    },
    {
        "%vlocity_namespace%__DomainObjectAPIName__c": "Contact",
        "%vlocity_namespace%__DomainObjectCreationOrder__c": 1,
        "%vlocity_namespace%__DomainObjectFieldAPIName__c": "Address_Line_4__c",
        "%vlocity_namespace%__InterfaceFieldAPIName__c": "personDetails:addressInformation:addressLine4",
        "%vlocity_namespace%__IsDisabled__c": false,
        "%vlocity_namespace%__IsRequiredForUpsert__c": false,
        "%vlocity_namespace%__MapId__c": "DRUpdateNonResidentialPersonCustom2097",
        "%vlocity_namespace%__UpsertKey__c": false,
        "Name": "DRUpdateNonResidentialPerson",
        "VlocityDataPackType": "SObject",
        "VlocityRecordSObjectType": "%vlocity_namespace%__DRMapItem__c"
    },
    {
        "%vlocity_namespace%__DomainObjectAPIName__c": "Contact",
        "%vlocity_namespace%__DomainObjectCreationOrder__c": 1,
        "%vlocity_namespace%__DomainObjectFieldAPIName__c": "Alternate_Contact__c",
        "%vlocity_namespace%__InterfaceFieldAPIName__c": "personDetails:contactInformation:alternateContact",
        "%vlocity_namespace%__IsDisabled__c": false,
        "%vlocity_namespace%__IsRequiredForUpsert__c": false,
        "%vlocity_namespace%__MapId__c": "DRUpdateNonResidentialPersonCustom3647",
        "%vlocity_namespace%__UpsertKey__c": false,
        "Name": "DRUpdateNonResidentialPerson",
        "VlocityDataPackType": "SObject",
        "VlocityRecordSObjectType": "%vlocity_namespace%__DRMapItem__c"
    },
    {
        "%vlocity_namespace%__DomainObjectAPIName__c": "Contact",
        "%vlocity_namespace%__DomainObjectCreationOrder__c": 1,
        "%vlocity_namespace%__DomainObjectFieldAPIName__c": "Alternate_Phone_2__c",
        "%vlocity_namespace%__InterfaceFieldAPIName__c": "personDetails:contactInformation:alternatePhone2",
        "%vlocity_namespace%__IsDisabled__c": false,
        "%vlocity_namespace%__IsRequiredForUpsert__c": false,
        "%vlocity_namespace%__MapId__c": "DRUpdateNonResidentialPersonCustom5297",
        "%vlocity_namespace%__UpsertKey__c": false,
        "Name": "DRUpdateNonResidentialPerson",
        "VlocityDataPackType": "SObject",
        "VlocityRecordSObjectType": "%vlocity_namespace%__DRMapItem__c"
    },
    {
        "%vlocity_namespace%__DomainObjectAPIName__c": "Contact",
        "%vlocity_namespace%__DomainObjectCreationOrder__c": 1,
        "%vlocity_namespace%__DomainObjectFieldAPIName__c": "Alternate_Phone_3__c",
        "%vlocity_namespace%__InterfaceFieldAPIName__c": "personDetails:contactInformation:alternatePhone3",
        "%vlocity_namespace%__IsDisabled__c": false,
        "%vlocity_namespace%__IsRequiredForUpsert__c": false,
        "%vlocity_namespace%__MapId__c": "DRUpdateNonResidentialPersonCustom78",
        "%vlocity_namespace%__UpsertKey__c": false,
        "Name": "DRUpdateNonResidentialPerson",
        "VlocityDataPackType": "SObject",
        "VlocityRecordSObjectType": "%vlocity_namespace%__DRMapItem__c"
    },
    {
        "%vlocity_namespace%__DomainObjectAPIName__c": "Contact",
        "%vlocity_namespace%__DomainObjectCreationOrder__c": 1,
        "%vlocity_namespace%__DomainObjectFieldAPIName__c": "Business_Phone_2__c",
        "%vlocity_namespace%__InterfaceFieldAPIName__c": "personDetails:contactInformation:businessPhone2",
        "%vlocity_namespace%__IsDisabled__c": false,
        "%vlocity_namespace%__IsRequiredForUpsert__c": false,
        "%vlocity_namespace%__MapId__c": "DRUpdateNonResidentialPersonCustom5708",
        "%vlocity_namespace%__UpsertKey__c": false,
        "Name": "DRUpdateNonResidentialPerson",
        "VlocityDataPackType": "SObject",
        "VlocityRecordSObjectType": "%vlocity_namespace%__DRMapItem__c"
    },
    {
        "%vlocity_namespace%__DomainObjectAPIName__c": "Contact",
        "%vlocity_namespace%__DomainObjectCreationOrder__c": 1,
        "%vlocity_namespace%__DomainObjectFieldAPIName__c": "Business_Phone__c",
        "%vlocity_namespace%__InterfaceFieldAPIName__c": "personDetails:contactInformation:businessPhone",
        "%vlocity_namespace%__IsDisabled__c": false,
        "%vlocity_namespace%__IsRequiredForUpsert__c": false,
        "%vlocity_namespace%__MapId__c": "DRUpdateNonResidentialPersonCustom8265",
        "%vlocity_namespace%__UpsertKey__c": false,
        "Name": "DRUpdateNonResidentialPerson",
        "VlocityDataPackType": "SObject",
        "VlocityRecordSObjectType": "%vlocity_namespace%__DRMapItem__c"
    },
    {
        "%vlocity_namespace%__DomainObjectAPIName__c": "Contact",
        "%vlocity_namespace%__DomainObjectCreationOrder__c": 1,
        "%vlocity_namespace%__DomainObjectFieldAPIName__c": "City__c",
        "%vlocity_namespace%__InterfaceFieldAPIName__c": "personDetails:addressInformation:city",
        "%vlocity_namespace%__IsDisabled__c": false,
        "%vlocity_namespace%__IsRequiredForUpsert__c": false,
        "%vlocity_namespace%__MapId__c": "DRUpdateNonResidentialPersonCustom685",
        "%vlocity_namespace%__UpsertKey__c": false,
        "Name": "DRUpdateNonResidentialPerson",
        "VlocityDataPackType": "SObject",
        "VlocityRecordSObjectType": "%vlocity_namespace%__DRMapItem__c"
    },
    {
        "%vlocity_namespace%__DomainObjectAPIName__c": "Contact",
        "%vlocity_namespace%__DomainObjectCreationOrder__c": 1,
        "%vlocity_namespace%__DomainObjectFieldAPIName__c": "Consulat__c",
        "%vlocity_namespace%__InterfaceFieldAPIName__c": "personDetails:identityInfoBlock:consulat",
        "%vlocity_namespace%__IsDisabled__c": false,
        "%vlocity_namespace%__IsRequiredForUpsert__c": false,
        "%vlocity_namespace%__MapId__c": "DRUpdateNonResidentialPersonCustom8436",
        "%vlocity_namespace%__UpsertKey__c": false,
        "Name": "DRUpdateNonResidentialPerson",
        "VlocityDataPackType": "SObject",
        "VlocityRecordSObjectType": "%vlocity_namespace%__DRMapItem__c"
    },
    {
        "%vlocity_namespace%__DomainObjectAPIName__c": "Contact",
        "%vlocity_namespace%__DomainObjectCreationOrder__c": 1,
        "%vlocity_namespace%__DomainObjectFieldAPIName__c": "Country__c",
        "%vlocity_namespace%__InterfaceFieldAPIName__c": "personDetails:addressInformation:country",
        "%vlocity_namespace%__IsDisabled__c": false,
        "%vlocity_namespace%__IsRequiredForUpsert__c": false,
        "%vlocity_namespace%__MapId__c": "DRUpdateNonResidentialPersonCustom7855",
        "%vlocity_namespace%__UpsertKey__c": false,
        "Name": "DRUpdateNonResidentialPerson",
        "VlocityDataPackType": "SObject",
        "VlocityRecordSObjectType": "%vlocity_namespace%__DRMapItem__c"
    },
    {
        "%vlocity_namespace%__DomainObjectAPIName__c": "Contact",
        "%vlocity_namespace%__DomainObjectCreationOrder__c": 1,
        "%vlocity_namespace%__DomainObjectFieldAPIName__c": "D_B__c",
        "%vlocity_namespace%__InterfaceFieldAPIName__c": "personDetails:identityInfoBlock:d&amp;b",
        "%vlocity_namespace%__IsDisabled__c": false,
        "%vlocity_namespace%__IsRequiredForUpsert__c": false,
        "%vlocity_namespace%__MapId__c": "DRUpdateNonResidentialPersonCustom9336",
        "%vlocity_namespace%__UpsertKey__c": false,
        "Name": "DRUpdateNonResidentialPerson",
        "VlocityDataPackType": "SObject",
        "VlocityRecordSObjectType": "%vlocity_namespace%__DRMapItem__c"
    },
    {
        "%vlocity_namespace%__DomainObjectAPIName__c": "Contact",
        "%vlocity_namespace%__DomainObjectCreationOrder__c": 1,
        "%vlocity_namespace%__DomainObjectFieldAPIName__c": "FirstName",
        "%vlocity_namespace%__InterfaceFieldAPIName__c": "personDetails:soleProprietor:upperCaseFirstName",
        "%vlocity_namespace%__IsDisabled__c": false,
        "%vlocity_namespace%__IsRequiredForUpsert__c": false,
        "%vlocity_namespace%__MapId__c": "DRUpdateNonResidentialPersonCustom2661",
        "%vlocity_namespace%__UpsertKey__c": false,
        "Name": "DRUpdateNonResidentialPerson",
        "VlocityDataPackType": "SObject",
        "VlocityRecordSObjectType": "%vlocity_namespace%__DRMapItem__c"
    },
    {
        "%vlocity_namespace%__DomainObjectAPIName__c": "Contact",
        "%vlocity_namespace%__DomainObjectCreationOrder__c": 1,
        "%vlocity_namespace%__DomainObjectFieldAPIName__c": "HomePhone",
        "%vlocity_namespace%__InterfaceFieldAPIName__c": "personDetails:contactInformation:homePhone",
        "%vlocity_namespace%__IsDisabled__c": false,
        "%vlocity_namespace%__IsRequiredForUpsert__c": false,
        "%vlocity_namespace%__MapId__c": "DRUpdateNonResidentialPersonCustom7034",
        "%vlocity_namespace%__UpsertKey__c": false,
        "Name": "DRUpdateNonResidentialPerson",
        "VlocityDataPackType": "SObject",
        "VlocityRecordSObjectType": "%vlocity_namespace%__DRMapItem__c"
    },
    {
        "%vlocity_namespace%__DomainObjectAPIName__c": "Contact",
        "%vlocity_namespace%__DomainObjectCreationOrder__c": 1,
        "%vlocity_namespace%__DomainObjectFieldAPIName__c": "Home_Phone_2__c",
        "%vlocity_namespace%__InterfaceFieldAPIName__c": "personDetails:contactInformation:homePhone2",
        "%vlocity_namespace%__IsDisabled__c": false,
        "%vlocity_namespace%__IsRequiredForUpsert__c": false,
        "%vlocity_namespace%__MapId__c": "DRUpdateNonResidentialPersonCustom7301",
        "%vlocity_namespace%__UpsertKey__c": false,
        "Name": "DRUpdateNonResidentialPerson",
        "VlocityDataPackType": "SObject",
        "VlocityRecordSObjectType": "%vlocity_namespace%__DRMapItem__c"
    },
    {
        "%vlocity_namespace%__ConfigurationValue__c": "FAKEMAPPING",
        "%vlocity_namespace%__DomainObjectAPIName__c": "Contact",
        "%vlocity_namespace%__DomainObjectCreationOrder__c": 1,
        "%vlocity_namespace%__DomainObjectFieldAPIName__c": "Id",
        "%vlocity_namespace%__FilterOperator__c": "=",
        "%vlocity_namespace%__IsDisabled__c": true,
        "%vlocity_namespace%__IsRequiredForUpsert__c": false,
        "%vlocity_namespace%__MapId__c": "DRUpdateNonResidentialPersonCustom2844",
        "%vlocity_namespace%__UpsertKey__c": false,
        "Name": "DRUpdateNonResidentialPerson",
        "VlocityDataPackType": "SObject",
        "VlocityRecordSObjectType": "%vlocity_namespace%__DRMapItem__c"
    },
    {
        "%vlocity_namespace%__DomainObjectAPIName__c": "Contact",
        "%vlocity_namespace%__DomainObjectCreationOrder__c": 1,
        "%vlocity_namespace%__DomainObjectFieldAPIName__c": "LANGUAGE_CD__c",
        "%vlocity_namespace%__InterfaceFieldAPIName__c": "personDetails:addressInformation:language",
        "%vlocity_namespace%__IsDisabled__c": false,
        "%vlocity_namespace%__IsRequiredForUpsert__c": false,
        "%vlocity_namespace%__MapId__c": "DRUpdateNonResidentialPersonCustom5142",
        "%vlocity_namespace%__UpsertKey__c": false,
        "Name": "DRUpdateNonResidentialPerson",
        "VlocityDataPackType": "SObject",
        "VlocityRecordSObjectType": "%vlocity_namespace%__DRMapItem__c"
    },
    {
        "%vlocity_namespace%__DomainObjectAPIName__c": "Contact",
        "%vlocity_namespace%__DomainObjectCreationOrder__c": 1,
        "%vlocity_namespace%__DomainObjectFieldAPIName__c": "LastName",
        "%vlocity_namespace%__InterfaceFieldAPIName__c": "personDetails:soleProprietor:upperCaseLastName",
        "%vlocity_namespace%__IsDisabled__c": false,
        "%vlocity_namespace%__IsRequiredForUpsert__c": false,
        "%vlocity_namespace%__MapId__c": "DRUpdateNonResidentialPersonCustom8990",
        "%vlocity_namespace%__UpsertKey__c": false,
        "Name": "DRUpdateNonResidentialPerson",
        "VlocityDataPackType": "SObject",
        "VlocityRecordSObjectType": "%vlocity_namespace%__DRMapItem__c"
    },
    {
        "%vlocity_namespace%__DomainObjectAPIName__c": "Contact",
        "%vlocity_namespace%__DomainObjectCreationOrder__c": 1,
        "%vlocity_namespace%__DomainObjectFieldAPIName__c": "MiddleName",
        "%vlocity_namespace%__InterfaceFieldAPIName__c": "personDetails:soleProprietor:upperCaseMiddleName",
        "%vlocity_namespace%__IsDisabled__c": false,
        "%vlocity_namespace%__IsRequiredForUpsert__c": false,
        "%vlocity_namespace%__MapId__c": "DRUpdateNonResidentialPersonCustom6007",
        "%vlocity_namespace%__UpsertKey__c": false,
        "Name": "DRUpdateNonResidentialPerson",
        "VlocityDataPackType": "SObject",
        "VlocityRecordSObjectType": "%vlocity_namespace%__DRMapItem__c"
    },
    {
        "%vlocity_namespace%__DomainObjectAPIName__c": "Contact",
        "%vlocity_namespace%__DomainObjectCreationOrder__c": 1,
        "%vlocity_namespace%__DomainObjectFieldAPIName__c": "MobilePhone",
        "%vlocity_namespace%__InterfaceFieldAPIName__c": "personDetails:contactInformation:mobile",
        "%vlocity_namespace%__IsDisabled__c": false,
        "%vlocity_namespace%__IsRequiredForUpsert__c": false,
        "%vlocity_namespace%__MapId__c": "DRUpdateNonResidentialPersonCustom2324",
        "%vlocity_namespace%__UpsertKey__c": false,
        "Name": "DRUpdateNonResidentialPerson",
        "VlocityDataPackType": "SObject",
        "VlocityRecordSObjectType": "%vlocity_namespace%__DRMapItem__c"
    },
    {
        "%vlocity_namespace%__DomainObjectAPIName__c": "Contact",
        "%vlocity_namespace%__DomainObjectCreationOrder__c": 1,
        "%vlocity_namespace%__DomainObjectFieldAPIName__c": "Name",
        "%vlocity_namespace%__InterfaceFieldAPIName__c": "personDetails:Corporation:uppercaseCorporation",
        "%vlocity_namespace%__IsDisabled__c": false,
        "%vlocity_namespace%__IsRequiredForUpsert__c": false,
        "%vlocity_namespace%__MapId__c": "DRUpdateNonResidentialPersonCustom7658",
        "%vlocity_namespace%__UpsertKey__c": false,
        "Name": "DRUpdateNonResidentialPerson",
        "VlocityDataPackType": "SObject",
        "VlocityRecordSObjectType": "%vlocity_namespace%__DRMapItem__c"
    },
    {
        "%vlocity_namespace%__DomainObjectAPIName__c": "Contact",
        "%vlocity_namespace%__DomainObjectCreationOrder__c": 1,
        "%vlocity_namespace%__DomainObjectFieldAPIName__c": "Name",
        "%vlocity_namespace%__InterfaceFieldAPIName__c": "personDetails:generalPartnership:uppercaseName",
        "%vlocity_namespace%__IsDisabled__c": false,
        "%vlocity_namespace%__IsRequiredForUpsert__c": false,
        "%vlocity_namespace%__MapId__c": "DRUpdateNonResidentialPersonCustom5047",
        "%vlocity_namespace%__UpsertKey__c": false,
        "Name": "DRUpdateNonResidentialPerson",
        "VlocityDataPackType": "SObject",
        "VlocityRecordSObjectType": "%vlocity_namespace%__DRMapItem__c"
    },
    {
        "%vlocity_namespace%__DomainObjectAPIName__c": "Contact",
        "%vlocity_namespace%__DomainObjectCreationOrder__c": 1,
        "%vlocity_namespace%__DomainObjectFieldAPIName__c": "Name",
        "%vlocity_namespace%__InterfaceFieldAPIName__c": "personDetails:jointVenture:uppercasenameJV",
        "%vlocity_namespace%__IsDisabled__c": false,
        "%vlocity_namespace%__IsRequiredForUpsert__c": false,
        "%vlocity_namespace%__MapId__c": "DRUpdateNonResidentialPersonCustom6097",
        "%vlocity_namespace%__UpsertKey__c": false,
        "Name": "DRUpdateNonResidentialPerson",
        "VlocityDataPackType": "SObject",
        "VlocityRecordSObjectType": "%vlocity_namespace%__DRMapItem__c"
    },
    {
        "%vlocity_namespace%__DomainObjectAPIName__c": "Contact",
        "%vlocity_namespace%__DomainObjectCreationOrder__c": 1,
        "%vlocity_namespace%__DomainObjectFieldAPIName__c": "Name",
        "%vlocity_namespace%__InterfaceFieldAPIName__c": "personDetails:limitedLiabilityCorporation:uppercaseNameLLC",
        "%vlocity_namespace%__IsDisabled__c": false,
        "%vlocity_namespace%__IsRequiredForUpsert__c": false,
        "%vlocity_namespace%__MapId__c": "DRUpdateNonResidentialPersonCustom1291",
        "%vlocity_namespace%__UpsertKey__c": false,
        "Name": "DRUpdateNonResidentialPerson",
        "VlocityDataPackType": "SObject",
        "VlocityRecordSObjectType": "%vlocity_namespace%__DRMapItem__c"
    },
    {
        "%vlocity_namespace%__DomainObjectAPIName__c": "Contact",
        "%vlocity_namespace%__DomainObjectCreationOrder__c": 1,
        "%vlocity_namespace%__DomainObjectFieldAPIName__c": "Name",
        "%vlocity_namespace%__InterfaceFieldAPIName__c": "personDetails:limitedPartnership:uppercaseNameLP",
        "%vlocity_namespace%__IsDisabled__c": false,
        "%vlocity_namespace%__IsRequiredForUpsert__c": false,
        "%vlocity_namespace%__MapId__c": "DRUpdateNonResidentialPersonCustom7956",
        "%vlocity_namespace%__UpsertKey__c": false,
        "Name": "DRUpdateNonResidentialPerson",
        "VlocityDataPackType": "SObject",
        "VlocityRecordSObjectType": "%vlocity_namespace%__DRMapItem__c"
    },
    {
        "%vlocity_namespace%__DomainObjectAPIName__c": "Contact",
        "%vlocity_namespace%__DomainObjectCreationOrder__c": 1,
        "%vlocity_namespace%__DomainObjectFieldAPIName__c": "Name_1__c",
        "%vlocity_namespace%__InterfaceFieldAPIName__c": "personDetails:overrideMailingName:upperCaseName1",
        "%vlocity_namespace%__IsDisabled__c": false,
        "%vlocity_namespace%__IsRequiredForUpsert__c": false,
        "%vlocity_namespace%__MapId__c": "DRUpdateNonResidentialPersonCustom5606",
        "%vlocity_namespace%__UpsertKey__c": false,
        "Name": "DRUpdateNonResidentialPerson",
        "VlocityDataPackType": "SObject",
        "VlocityRecordSObjectType": "%vlocity_namespace%__DRMapItem__c"
    },
    {
        "%vlocity_namespace%__DomainObjectAPIName__c": "Contact",
        "%vlocity_namespace%__DomainObjectCreationOrder__c": 1,
        "%vlocity_namespace%__DomainObjectFieldAPIName__c": "Name_2__c",
        "%vlocity_namespace%__InterfaceFieldAPIName__c": "personDetails:overrideMailingName:name2",
        "%vlocity_namespace%__IsDisabled__c": false,
        "%vlocity_namespace%__IsRequiredForUpsert__c": false,
        "%vlocity_namespace%__MapId__c": "DRUpdateNonResidentialPersonCustom9597",
        "%vlocity_namespace%__UpsertKey__c": false,
        "Name": "DRUpdateNonResidentialPerson",
        "VlocityDataPackType": "SObject",
        "VlocityRecordSObjectType": "%vlocity_namespace%__DRMapItem__c"
    },
    {
        "%vlocity_namespace%__DomainObjectAPIName__c": "Contact",
        "%vlocity_namespace%__DomainObjectCreationOrder__c": 1,
        "%vlocity_namespace%__DomainObjectFieldAPIName__c": "Name_3__c",
        "%vlocity_namespace%__InterfaceFieldAPIName__c": "personDetails:overrideMailingName:name3",
        "%vlocity_namespace%__IsDisabled__c": false,
        "%vlocity_namespace%__IsRequiredForUpsert__c": false,
        "%vlocity_namespace%__MapId__c": "DRUpdateNonResidentialPersonCustom6398",
        "%vlocity_namespace%__UpsertKey__c": false,
        "Name": "DRUpdateNonResidentialPerson",
        "VlocityDataPackType": "SObject",
        "VlocityRecordSObjectType": "%vlocity_namespace%__DRMapItem__c"
    },
    {
        "%vlocity_namespace%__DomainObjectAPIName__c": "Contact",
        "%vlocity_namespace%__DomainObjectCreationOrder__c": 1,
        "%vlocity_namespace%__DomainObjectFieldAPIName__c": "OtherPhone",
        "%vlocity_namespace%__InterfaceFieldAPIName__c": "personDetails:contactInformation:otherPhone",
        "%vlocity_namespace%__IsDisabled__c": false,
        "%vlocity_namespace%__IsRequiredForUpsert__c": false,
        "%vlocity_namespace%__MapId__c": "DRUpdateNonResidentialPersonCustom7108",
        "%vlocity_namespace%__UpsertKey__c": false,
        "Name": "DRUpdateNonResidentialPerson",
        "VlocityDataPackType": "SObject",
        "VlocityRecordSObjectType": "%vlocity_namespace%__DRMapItem__c"
    },
    {
        "%vlocity_namespace%__DomainObjectAPIName__c": "Contact",
        "%vlocity_namespace%__DomainObjectCreationOrder__c": 1,
        "%vlocity_namespace%__DomainObjectFieldAPIName__c": "Other_Identifier_Value__c",
        "%vlocity_namespace%__InterfaceFieldAPIName__c": "personDetails:identityInfoBlock:otherIdentifierValue",
        "%vlocity_namespace%__IsDisabled__c": false,
        "%vlocity_namespace%__IsRequiredForUpsert__c": false,
        "%vlocity_namespace%__MapId__c": "DRUpdateNonResidentialPersonCustom5291",
        "%vlocity_namespace%__UpsertKey__c": false,
        "Name": "DRUpdateNonResidentialPerson",
        "VlocityDataPackType": "SObject",
        "VlocityRecordSObjectType": "%vlocity_namespace%__DRMapItem__c"
    },
    {
        "%vlocity_namespace%__DomainObjectAPIName__c": "Contact",
        "%vlocity_namespace%__DomainObjectCreationOrder__c": 1,
        "%vlocity_namespace%__DomainObjectFieldAPIName__c": "Other_Person_Identifier__c",
        "%vlocity_namespace%__InterfaceFieldAPIName__c": "personDetails:identityInfoBlock:otherPersonIdentifier",
        "%vlocity_namespace%__IsDisabled__c": false,
        "%vlocity_namespace%__IsRequiredForUpsert__c": false,
        "%vlocity_namespace%__MapId__c": "DRUpdateNonResidentialPersonCustom5475",
        "%vlocity_namespace%__UpsertKey__c": false,
        "Name": "DRUpdateNonResidentialPerson",
        "VlocityDataPackType": "SObject",
        "VlocityRecordSObjectType": "%vlocity_namespace%__DRMapItem__c"
    },
    {
        "%vlocity_namespace%__DomainObjectAPIName__c": "Contact",
        "%vlocity_namespace%__DomainObjectCreationOrder__c": 1,
        "%vlocity_namespace%__DomainObjectFieldAPIName__c": "Other_Phone_Number__c",
        "%vlocity_namespace%__InterfaceFieldAPIName__c": "personDetails:contactInformation:otherPhoneNumber",
        "%vlocity_namespace%__IsDisabled__c": false,
        "%vlocity_namespace%__IsRequiredForUpsert__c": false,
        "%vlocity_namespace%__MapId__c": "DRUpdateNonResidentialPersonCustom201",
        "%vlocity_namespace%__UpsertKey__c": false,
        "Name": "DRUpdateNonResidentialPerson",
        "VlocityDataPackType": "SObject",
        "VlocityRecordSObjectType": "%vlocity_namespace%__DRMapItem__c"
    },
    {
        "%vlocity_namespace%__DomainObjectAPIName__c": "Contact",
        "%vlocity_namespace%__DomainObjectCreationOrder__c": 1,
        "%vlocity_namespace%__DomainObjectFieldAPIName__c": "Other_Phone_Type__c",
        "%vlocity_namespace%__InterfaceFieldAPIName__c": "personDetails:contactInformation:otherPhoneType",
        "%vlocity_namespace%__IsDisabled__c": false,
        "%vlocity_namespace%__IsRequiredForUpsert__c": false,
        "%vlocity_namespace%__MapId__c": "DRUpdateNonResidentialPersonCustom5577",
        "%vlocity_namespace%__UpsertKey__c": false,
        "Name": "DRUpdateNonResidentialPerson",
        "VlocityDataPackType": "SObject",
        "VlocityRecordSObjectType": "%vlocity_namespace%__DRMapItem__c"
    },
    {
        "%vlocity_namespace%__DomainObjectAPIName__c": "Contact",
        "%vlocity_namespace%__DomainObjectCreationOrder__c": 1,
        "%vlocity_namespace%__DomainObjectFieldAPIName__c": "PRECISE__c",
        "%vlocity_namespace%__InterfaceFieldAPIName__c": "personDetails:identityInfoBlock:precise",
        "%vlocity_namespace%__IsDisabled__c": false,
        "%vlocity_namespace%__IsRequiredForUpsert__c": false,
        "%vlocity_namespace%__MapId__c": "DRUpdateNonResidentialPersonCustom8720",
        "%vlocity_namespace%__UpsertKey__c": false,
        "Name": "DRUpdateNonResidentialPerson",
        "VlocityDataPackType": "SObject",
        "VlocityRecordSObjectType": "%vlocity_namespace%__DRMapItem__c"
    },
    {
        "%vlocity_namespace%__DomainObjectAPIName__c": "Contact",
        "%vlocity_namespace%__DomainObjectCreationOrder__c": 1,
        "%vlocity_namespace%__DomainObjectFieldAPIName__c": "Passport__c",
        "%vlocity_namespace%__InterfaceFieldAPIName__c": "personDetails:identityInfoBlock:passport",
        "%vlocity_namespace%__IsDisabled__c": false,
        "%vlocity_namespace%__IsRequiredForUpsert__c": false,
        "%vlocity_namespace%__MapId__c": "DRUpdateNonResidentialPersonCustom5732",
        "%vlocity_namespace%__UpsertKey__c": false,
        "Name": "DRUpdateNonResidentialPerson",
        "VlocityDataPackType": "SObject",
        "VlocityRecordSObjectType": "%vlocity_namespace%__DRMapItem__c"
    },
    {
        "%vlocity_namespace%__DomainObjectAPIName__c": "Contact",
        "%vlocity_namespace%__DomainObjectCreationOrder__c": 1,
        "%vlocity_namespace%__DomainObjectFieldAPIName__c": "Person_ID__c",
        "%vlocity_namespace%__InterfaceFieldAPIName__c": "personDetails:identityInfoBlock:externalPersonId",
        "%vlocity_namespace%__IsDisabled__c": false,
        "%vlocity_namespace%__IsRequiredForUpsert__c": false,
        "%vlocity_namespace%__MapId__c": "DRUpdateNonResidentialPersonCustom7469",
        "%vlocity_namespace%__UpsertKey__c": false,
        "Name": "DRUpdateNonResidentialPerson",
        "VlocityDataPackType": "SObject",
        "VlocityRecordSObjectType": "%vlocity_namespace%__DRMapItem__c"
    },
    {
        "%vlocity_namespace%__DomainObjectAPIName__c": "Contact",
        "%vlocity_namespace%__DomainObjectCreationOrder__c": 1,
        "%vlocity_namespace%__DomainObjectFieldAPIName__c": "Phone",
        "%vlocity_namespace%__InterfaceFieldAPIName__c": "personDetails:contactInformation:phone",
        "%vlocity_namespace%__IsDisabled__c": false,
        "%vlocity_namespace%__IsRequiredForUpsert__c": false,
        "%vlocity_namespace%__MapId__c": "DRUpdateNonResidentialPersonCustom9193",
        "%vlocity_namespace%__UpsertKey__c": false,
        "Name": "DRUpdateNonResidentialPerson",
        "VlocityDataPackType": "SObject",
        "VlocityRecordSObjectType": "%vlocity_namespace%__DRMapItem__c"
    },
    {
        "%vlocity_namespace%__DomainObjectAPIName__c": "Contact",
        "%vlocity_namespace%__DomainObjectCreationOrder__c": 1,
        "%vlocity_namespace%__DomainObjectFieldAPIName__c": "Postal__c",
        "%vlocity_namespace%__InterfaceFieldAPIName__c": "personDetails:addressInformation:postal",
        "%vlocity_namespace%__IsDisabled__c": false,
        "%vlocity_namespace%__IsRequiredForUpsert__c": false,
        "%vlocity_namespace%__MapId__c": "DRUpdateNonResidentialPersonCustom9210",
        "%vlocity_namespace%__UpsertKey__c": false,
        "Name": "DRUpdateNonResidentialPerson",
        "VlocityDataPackType": "SObject",
        "VlocityRecordSObjectType": "%vlocity_namespace%__DRMapItem__c"
    },
    {
        "%vlocity_namespace%__DomainObjectAPIName__c": "Contact",
        "%vlocity_namespace%__DomainObjectCreationOrder__c": 1,
        "%vlocity_namespace%__DomainObjectFieldAPIName__c": "STATE_ID__c",
        "%vlocity_namespace%__InterfaceFieldAPIName__c": "personDetails:identityInfoBlock:stateId",
        "%vlocity_namespace%__IsDisabled__c": false,
        "%vlocity_namespace%__IsRequiredForUpsert__c": false,
        "%vlocity_namespace%__MapId__c": "DRUpdateNonResidentialPersonCustom821",
        "%vlocity_namespace%__UpsertKey__c": false,
        "Name": "DRUpdateNonResidentialPerson",
        "VlocityDataPackType": "SObject",
        "VlocityRecordSObjectType": "%vlocity_namespace%__DRMapItem__c"
    },
    {
        "%vlocity_namespace%__DomainObjectAPIName__c": "Contact",
        "%vlocity_namespace%__DomainObjectCreationOrder__c": 1,
        "%vlocity_namespace%__DomainObjectFieldAPIName__c": "State__c",
        "%vlocity_namespace%__InterfaceFieldAPIName__c": "personDetails:addressInformation:state",
        "%vlocity_namespace%__IsDisabled__c": false,
        "%vlocity_namespace%__IsRequiredForUpsert__c": false,
        "%vlocity_namespace%__MapId__c": "DRUpdateNonResidentialPersonCustom3626",
        "%vlocity_namespace%__UpsertKey__c": false,
        "Name": "DRUpdateNonResidentialPerson",
        "VlocityDataPackType": "SObject",
        "VlocityRecordSObjectType": "%vlocity_namespace%__DRMapItem__c"
    },
    {
        "%vlocity_namespace%__DomainObjectAPIName__c": "Contact",
        "%vlocity_namespace%__DomainObjectCreationOrder__c": 1,
        "%vlocity_namespace%__DomainObjectFieldAPIName__c": "Suffix",
        "%vlocity_namespace%__InterfaceFieldAPIName__c": "personDetails:soleProprietor:upperCaseSuffix",
        "%vlocity_namespace%__IsDisabled__c": false,
        "%vlocity_namespace%__IsRequiredForUpsert__c": false,
        "%vlocity_namespace%__MapId__c": "DRUpdateNonResidentialPersonCustom2820",
        "%vlocity_namespace%__UpsertKey__c": false,
        "Name": "DRUpdateNonResidentialPerson",
        "VlocityDataPackType": "SObject",
        "VlocityRecordSObjectType": "%vlocity_namespace%__DRMapItem__c"
    },
    {
        "%vlocity_namespace%__DomainObjectAPIName__c": "Contact",
        "%vlocity_namespace%__DomainObjectCreationOrder__c": 1,
        "%vlocity_namespace%__DomainObjectFieldAPIName__c": "name",
        "%vlocity_namespace%__InterfaceFieldAPIName__c": "personDetails:limitedLiabilityPartnership:uppercaseNameLLP",
        "%vlocity_namespace%__IsDisabled__c": false,
        "%vlocity_namespace%__IsRequiredForUpsert__c": false,
        "%vlocity_namespace%__MapId__c": "DRUpdateNonResidentialPersonCustom8462",
        "%vlocity_namespace%__UpsertKey__c": false,
        "Name": "DRUpdateNonResidentialPerson",
        "VlocityDataPackType": "SObject",
        "VlocityRecordSObjectType": "%vlocity_namespace%__DRMapItem__c"
    }
]