{
    "ContextId": null,
    "personDetails": {
        "Corporation": {
            "dbaCP": null,
            "emailAddressCP": null,
            "idCP": null,
            "nameCP": null
        },
        "addAccount": null,
        "addressInformation": {
            "addressLine1": null,
            "addressLine2": null,
            "addressLine3": null,
            "addressLine4": null,
            "city": null,
            "country": null,
            "emailaddress": null,
            "language": null,
            "postal": null,
            "state": null,
            "status": null
        },
        "businessType": null,
        "contactInformation": {
            "alternateContact": null,
            "alternatePhone2": null,
            "alternatePhone3": null,
            "businessPhone": null,
            "businessPhone2": null,
            "homePhone": null,
            "homePhone2": null,
            "mobile": null,
            "otherPhone": null,
            "otherPhoneNumber": null,
            "otherPhoneType": null,
            "phone": null
        },
        "createAccountFields": {
            "accountIdExternal": null,
            "accountName": null
        },
        "customerClass": null,
        "generalPartnership": {
            "doingBusinessAsgp": null,
            "emailAddress": null,
            "name": null,
            "personId": null
        },
        "identityInfoBlock": {
            "consulat": null,
            "d&amp;b": null,
            "externalPersonId": null,
            "otherIdentifierValue": null,
            "otherPersonIdentifier": null,
            "passport": null,
            "precise": null,
            "socialSecurityNumber": null,
            "stateId": null,
            "taxId": null
        },
        "jointVenture": {
            "dbaJV": null,
            "emailAddressJV": null,
            "idJV": null,
            "nameJV": null
        },
        "limitedLiabilityCorporation": {
            "dbaLLC": null,
            "emailAddressLLC": null,
            "idLLC": null,
            "nameLLC": null
        },
        "limitedLiabilityPartnership": {
            "dba": null,
            "emailAddressLLP": null,
            "idLLP": null,
            "nameLLP": null
        },
        "limitedPartnership": {
            "dbaLP": null,
            "emailAddressLP": null,
            "idLP": null,
            "nameLP": null
        },
        "overrideMailingName": {
            "name1": null,
            "name2": null,
            "name3": null,
            "upperCaseName1": null,
            "upperCaseName2": null,
            "upperCaseName3": null
        },
        "soleProprietor": {
            "Email": null,
            "doingBusinessAs": null,
            "firstName": null,
            "lastName": null,
            "middleName": null,
            "suffix": null,
            "upperCaseFirstName": null,
            "upperCaseLastName": null,
            "upperCaseMiddleName": null,
            "upperCaseSuffix": null
        }
    },
    "timeStamp": null,
    "userId": null,
    "userName": null,
    "userProfile": null,
    "userTimeZone": null,
    "vlcPersistentComponent": {
    },
    "vlcTimeTracking": {
        "NonResPersonDataRaptorExtractAction": null,
        "personDetails": null,
        "personsConstants": null
    }
}