{
    "ContextId": null,
    "CreateCase": {
        "SubjectLine": null
    },
    "CreateContact": {
        "EmailId": null,
        "FirstName": null,
        "LastName": null,
        "Phone": null
    },
    "LocateProperty": {
        "BillingCity": null,
        "BillingCountry": null,
        "BillingState": null,
        "BillingStreet": null,
        "Name": "Test Account",
        "PostalCode": null,
        "ServiceAvailable": null
    },
    "RequestMoveIn": {
        "RequestingMoveIn": null
    },
    "timeStamp": null,
    "userId": null,
    "userName": null,
    "userProfile": null,
    "vlcPersistentComponent": {
    },
    "vlcTimeTracking": {
        "CreateCase": null,
        "CreateContact": null,
        "DoneAction1": null,
        "DoneAction2": null,
        "LocateProperty": null,
        "RequestMoveIn": null,
        "VPLCreateContact": null
    }
}