{
    "ActionParam": "Edit",
    "ContextId": "001m000000dhLwd",
    "ViewAccount": {
        "editAccountBlock": {
            "AccountName1": null,
            "BillCycle1": null,
            "CISDevision1": null,
            "CustomerClass1": null,
            "ManagementGroup1": null,
            "ProtectBillCycle1": false,
            "ShippingAddress1": null,
            "setupDate1": null
        },
        "viewAccountBlock": {
            "AccountName": null,
            "BillCycle": null,
            "CISDevision": null,
            "CustomerClass": null,
            "ManagementGroup": null,
            "ProtectBillCycle": false,
            "ShippingAddress": null,
            "setupDate": null
        },
        "viewAccountDetails": {
            "AccessGroup": null,
            "BillAfterDate": null,
            "BillPrintIntercept": null,
            "Currency Code": null,
            "ProtectCisDevision": false,
            "ProtectMailingPremise": false
        },
        "viewAccountDetails1": {
            "AccessGroup1": null,
            "BillAfterDate1": null,
            "BillPrintIntercept1": null,
            "Currency Code1": null,
            "ProtectCisDevision1": false,
            "ProtectMailingPremise1": false
        }
    },
    "id": "a2Fm0000000KFOQEA4",
    "layout": "lightning",
    "timeStamp": "2018-05-07T10:07:07.750Z",
    "userCurrencyCode": "USD",
    "userId": "005m0000002xAkGAAU",
    "userName": "gauri2.gaikwad2@pge.com.cc2020.dev",
    "userProfile": "System Administrator",
    "userTimeZone": -420,
    "vlcPersistentComponent": {
    },
    "vlcTimeTracking": {
        "Account Script Constant": 1091,
        "OmniScriptSessionToken": "4539bb7e-0378-4aa9-ad47-03180e02a3ae",
        "ViewUpdateAccountInfo": 2380
    }
}