[
    {
        "%vlocity_namespace%__DomainObjectAPIName__c": "Contact",
        "%vlocity_namespace%__DomainObjectCreationOrder__c": 1,
        "%vlocity_namespace%__DomainObjectFieldAPIName__c": "%vlocity_namespace%__SSN__c",
        "%vlocity_namespace%__InterfaceFieldAPIName__c": "Step1:identityInfoBlock:socialSecurityNumber",
        "%vlocity_namespace%__IsDisabled__c": false,
        "%vlocity_namespace%__IsRequiredForUpsert__c": false,
        "%vlocity_namespace%__MapId__c": "DRUpdatePersonDetailsCustom2593",
        "%vlocity_namespace%__UpsertKey__c": false,
        "Name": "DRUpdatePersonInformation",
        "VlocityDataPackType": "SObject",
        "VlocityRecordSObjectType": "%vlocity_namespace%__DRMapItem__c"
    },
    {
        "%vlocity_namespace%__DefaultValue__c": "Pending",
        "%vlocity_namespace%__DomainObjectAPIName__c": "Contact",
        "%vlocity_namespace%__DomainObjectCreationOrder__c": 1,
        "%vlocity_namespace%__DomainObjectFieldAPIName__c": "%vlocity_namespace%__Status__c",
        "%vlocity_namespace%__DomainObjectFieldType__c": "String",
        "%vlocity_namespace%__InterfaceFieldAPIName__c": "Step1:personalInfoBlock:status",
        "%vlocity_namespace%__IsDisabled__c": false,
        "%vlocity_namespace%__IsRequiredForUpsert__c": false,
        "%vlocity_namespace%__MapId__c": "DRUpdatePersonInformationCustom8810",
        "%vlocity_namespace%__UpsertKey__c": false,
        "Name": "DRUpdatePersonInformation",
        "VlocityDataPackType": "SObject",
        "VlocityRecordSObjectType": "%vlocity_namespace%__DRMapItem__c"
    },
    {
        "%vlocity_namespace%__DomainObjectAPIName__c": "Contact",
        "%vlocity_namespace%__DomainObjectCreationOrder__c": 1,
        "%vlocity_namespace%__DomainObjectFieldAPIName__c": "%vlocity_namespace%__TaxId__c",
        "%vlocity_namespace%__InterfaceFieldAPIName__c": "Step1:identityInfoBlock:taxId",
        "%vlocity_namespace%__IsDisabled__c": false,
        "%vlocity_namespace%__IsRequiredForUpsert__c": false,
        "%vlocity_namespace%__MapId__c": "DRUpdatePersonDetailsCustom6478",
        "%vlocity_namespace%__UpsertKey__c": false,
        "Name": "DRUpdatePersonInformation",
        "VlocityDataPackType": "SObject",
        "VlocityRecordSObjectType": "%vlocity_namespace%__DRMapItem__c"
    },
    {
        "%vlocity_namespace%__DomainObjectAPIName__c": "Contact",
        "%vlocity_namespace%__DomainObjectCreationOrder__c": 1,
        "%vlocity_namespace%__DomainObjectFieldAPIName__c": "ADDRESS3__c",
        "%vlocity_namespace%__InterfaceFieldAPIName__c": "Step1:personalInfoBlock:addressLine3",
        "%vlocity_namespace%__IsDisabled__c": false,
        "%vlocity_namespace%__IsRequiredForUpsert__c": false,
        "%vlocity_namespace%__MapId__c": "DRUpdatePersonDetailsCustom1919",
        "%vlocity_namespace%__UpsertKey__c": false,
        "Name": "DRUpdatePersonInformation",
        "VlocityDataPackType": "SObject",
        "VlocityRecordSObjectType": "%vlocity_namespace%__DRMapItem__c"
    },
    {
        "%vlocity_namespace%__DomainObjectAPIName__c": "Contact",
        "%vlocity_namespace%__DomainObjectCreationOrder__c": 1,
        "%vlocity_namespace%__DomainObjectFieldAPIName__c": "Address_Line_1__c",
        "%vlocity_namespace%__InterfaceFieldAPIName__c": "Step1:personalInfoBlock:addressLine1",
        "%vlocity_namespace%__IsDisabled__c": false,
        "%vlocity_namespace%__IsRequiredForUpsert__c": false,
        "%vlocity_namespace%__MapId__c": "DRUpdatePersonDetailsCustom2474",
        "%vlocity_namespace%__UpsertKey__c": false,
        "Name": "DRUpdatePersonInformation",
        "VlocityDataPackType": "SObject",
        "VlocityRecordSObjectType": "%vlocity_namespace%__DRMapItem__c"
    },
    {
        "%vlocity_namespace%__DomainObjectAPIName__c": "Contact",
        "%vlocity_namespace%__DomainObjectCreationOrder__c": 1,
        "%vlocity_namespace%__DomainObjectFieldAPIName__c": "Address_Line_2__c",
        "%vlocity_namespace%__InterfaceFieldAPIName__c": "Step1:personalInfoBlock:addressLine2",
        "%vlocity_namespace%__IsDisabled__c": false,
        "%vlocity_namespace%__IsRequiredForUpsert__c": false,
        "%vlocity_namespace%__MapId__c": "DRUpdatePersonDetailsCustom108",
        "%vlocity_namespace%__UpsertKey__c": false,
        "Name": "DRUpdatePersonInformation",
        "VlocityDataPackType": "SObject",
        "VlocityRecordSObjectType": "%vlocity_namespace%__DRMapItem__c"
    },
    {
        "%vlocity_namespace%__DomainObjectAPIName__c": "Contact",
        "%vlocity_namespace%__DomainObjectCreationOrder__c": 1,
        "%vlocity_namespace%__DomainObjectFieldAPIName__c": "Address_Line_4__c",
        "%vlocity_namespace%__InterfaceFieldAPIName__c": "Step1:personalInfoBlock:addressLine4",
        "%vlocity_namespace%__IsDisabled__c": false,
        "%vlocity_namespace%__IsRequiredForUpsert__c": false,
        "%vlocity_namespace%__MapId__c": "DRUpdatePersonDetailsCustom1956",
        "%vlocity_namespace%__UpsertKey__c": false,
        "Name": "DRUpdatePersonInformation",
        "VlocityDataPackType": "SObject",
        "VlocityRecordSObjectType": "%vlocity_namespace%__DRMapItem__c"
    },
    {
        "%vlocity_namespace%__DomainObjectAPIName__c": "Contact",
        "%vlocity_namespace%__DomainObjectCreationOrder__c": 1,
        "%vlocity_namespace%__DomainObjectFieldAPIName__c": "Alternate_Contact__c",
        "%vlocity_namespace%__InterfaceFieldAPIName__c": "Step1:contactInfoBlock:alternateContact",
        "%vlocity_namespace%__IsDisabled__c": false,
        "%vlocity_namespace%__IsRequiredForUpsert__c": false,
        "%vlocity_namespace%__MapId__c": "DRUpdatePersonDetailsCustom752",
        "%vlocity_namespace%__UpsertKey__c": false,
        "Name": "DRUpdatePersonInformation",
        "VlocityDataPackType": "SObject",
        "VlocityRecordSObjectType": "%vlocity_namespace%__DRMapItem__c"
    },
    {
        "%vlocity_namespace%__DomainObjectAPIName__c": "Contact",
        "%vlocity_namespace%__DomainObjectCreationOrder__c": 1,
        "%vlocity_namespace%__DomainObjectFieldAPIName__c": "Alternate_Phone_2__c",
        "%vlocity_namespace%__InterfaceFieldAPIName__c": "Step1:contactInfoBlock:alternatePhone2",
        "%vlocity_namespace%__IsDisabled__c": false,
        "%vlocity_namespace%__IsRequiredForUpsert__c": false,
        "%vlocity_namespace%__MapId__c": "DRUpdatePersonDetailsCustom9505",
        "%vlocity_namespace%__UpsertKey__c": false,
        "Name": "DRUpdatePersonInformation",
        "VlocityDataPackType": "SObject",
        "VlocityRecordSObjectType": "%vlocity_namespace%__DRMapItem__c"
    },
    {
        "%vlocity_namespace%__DomainObjectAPIName__c": "Contact",
        "%vlocity_namespace%__DomainObjectCreationOrder__c": 1,
        "%vlocity_namespace%__DomainObjectFieldAPIName__c": "Alternate_Phone_3__c",
        "%vlocity_namespace%__InterfaceFieldAPIName__c": "Step1:contactInfoBlock:alternatePhone3",
        "%vlocity_namespace%__IsDisabled__c": false,
        "%vlocity_namespace%__IsRequiredForUpsert__c": false,
        "%vlocity_namespace%__MapId__c": "DRUpdatePersonDetailsCustom4275",
        "%vlocity_namespace%__UpsertKey__c": false,
        "Name": "DRUpdatePersonInformation",
        "VlocityDataPackType": "SObject",
        "VlocityRecordSObjectType": "%vlocity_namespace%__DRMapItem__c"
    },
    {
        "%vlocity_namespace%__DomainObjectAPIName__c": "Contact",
        "%vlocity_namespace%__DomainObjectCreationOrder__c": 1,
        "%vlocity_namespace%__DomainObjectFieldAPIName__c": "Business_Phone_2__c",
        "%vlocity_namespace%__InterfaceFieldAPIName__c": "Step1:contactInfoBlock:businessPhone2",
        "%vlocity_namespace%__IsDisabled__c": false,
        "%vlocity_namespace%__IsRequiredForUpsert__c": false,
        "%vlocity_namespace%__MapId__c": "DRUpdatePersonDetailsCustom214",
        "%vlocity_namespace%__UpsertKey__c": false,
        "Name": "DRUpdatePersonInformation",
        "VlocityDataPackType": "SObject",
        "VlocityRecordSObjectType": "%vlocity_namespace%__DRMapItem__c"
    },
    {
        "%vlocity_namespace%__DomainObjectAPIName__c": "Contact",
        "%vlocity_namespace%__DomainObjectCreationOrder__c": 1,
        "%vlocity_namespace%__DomainObjectFieldAPIName__c": "Business_Phone__c",
        "%vlocity_namespace%__InterfaceFieldAPIName__c": "Step1:contactInfoBlock:businessPhone",
        "%vlocity_namespace%__IsDisabled__c": false,
        "%vlocity_namespace%__IsRequiredForUpsert__c": false,
        "%vlocity_namespace%__MapId__c": "DRUpdatePersonDetailsCustom120",
        "%vlocity_namespace%__UpsertKey__c": false,
        "Name": "DRUpdatePersonInformation",
        "VlocityDataPackType": "SObject",
        "VlocityRecordSObjectType": "%vlocity_namespace%__DRMapItem__c"
    },
    {
        "%vlocity_namespace%__DomainObjectAPIName__c": "Contact",
        "%vlocity_namespace%__DomainObjectCreationOrder__c": 1,
        "%vlocity_namespace%__DomainObjectFieldAPIName__c": "City__c",
        "%vlocity_namespace%__InterfaceFieldAPIName__c": "Step1:personalInfoBlock:city",
        "%vlocity_namespace%__IsDisabled__c": false,
        "%vlocity_namespace%__IsRequiredForUpsert__c": false,
        "%vlocity_namespace%__MapId__c": "DRUpdatePersonDetailsCustom8856",
        "%vlocity_namespace%__UpsertKey__c": false,
        "Name": "DRUpdatePersonInformation",
        "VlocityDataPackType": "SObject",
        "VlocityRecordSObjectType": "%vlocity_namespace%__DRMapItem__c"
    },
    {
        "%vlocity_namespace%__DomainObjectAPIName__c": "Contact",
        "%vlocity_namespace%__DomainObjectCreationOrder__c": 1,
        "%vlocity_namespace%__DomainObjectFieldAPIName__c": "Consulat__c",
        "%vlocity_namespace%__InterfaceFieldAPIName__c": "Step1:identityInfoBlock:consulat",
        "%vlocity_namespace%__IsDisabled__c": false,
        "%vlocity_namespace%__IsRequiredForUpsert__c": false,
        "%vlocity_namespace%__MapId__c": "DRUpdatePersonDetailsCustom8114",
        "%vlocity_namespace%__UpsertKey__c": false,
        "Name": "DRUpdatePersonInformation",
        "VlocityDataPackType": "SObject",
        "VlocityRecordSObjectType": "%vlocity_namespace%__DRMapItem__c"
    },
    {
        "%vlocity_namespace%__DomainObjectAPIName__c": "Contact",
        "%vlocity_namespace%__DomainObjectCreationOrder__c": 1,
        "%vlocity_namespace%__DomainObjectFieldAPIName__c": "Country__c",
        "%vlocity_namespace%__InterfaceFieldAPIName__c": "Step1:personalInfoBlock:country",
        "%vlocity_namespace%__IsDisabled__c": false,
        "%vlocity_namespace%__IsRequiredForUpsert__c": false,
        "%vlocity_namespace%__MapId__c": "DRUpdatePersonDetailsCustom86",
        "%vlocity_namespace%__UpsertKey__c": false,
        "Name": "DRUpdatePersonInformation",
        "VlocityDataPackType": "SObject",
        "VlocityRecordSObjectType": "%vlocity_namespace%__DRMapItem__c"
    },
    {
        "%vlocity_namespace%__DomainObjectAPIName__c": "Contact",
        "%vlocity_namespace%__DomainObjectCreationOrder__c": 1,
        "%vlocity_namespace%__DomainObjectFieldAPIName__c": "D_B__c",
        "%vlocity_namespace%__InterfaceFieldAPIName__c": "Step1:identityInfoBlock:d&b",
        "%vlocity_namespace%__IsDisabled__c": false,
        "%vlocity_namespace%__IsRequiredForUpsert__c": false,
        "%vlocity_namespace%__MapId__c": "DRUpdatePersonDetailsCustom7345",
        "%vlocity_namespace%__UpsertKey__c": false,
        "Name": "DRUpdatePersonInformation",
        "VlocityDataPackType": "SObject",
        "VlocityRecordSObjectType": "%vlocity_namespace%__DRMapItem__c"
    },
    {
        "%vlocity_namespace%__DomainObjectAPIName__c": "Contact",
        "%vlocity_namespace%__DomainObjectCreationOrder__c": 1,
        "%vlocity_namespace%__DomainObjectFieldAPIName__c": "Email_Address__c",
        "%vlocity_namespace%__InterfaceFieldAPIName__c": "Step1:personalInfoBlock:emailAddress",
        "%vlocity_namespace%__IsDisabled__c": false,
        "%vlocity_namespace%__IsRequiredForUpsert__c": false,
        "%vlocity_namespace%__MapId__c": "DRUpdatePersonDetailsCustom3517",
        "%vlocity_namespace%__UpsertKey__c": false,
        "Name": "DRUpdatePersonInformation",
        "VlocityDataPackType": "SObject",
        "VlocityRecordSObjectType": "%vlocity_namespace%__DRMapItem__c"
    },
    {
        "%vlocity_namespace%__DomainObjectAPIName__c": "Contact",
        "%vlocity_namespace%__DomainObjectCreationOrder__c": 1,
        "%vlocity_namespace%__DomainObjectFieldAPIName__c": "FirstName",
        "%vlocity_namespace%__InterfaceFieldAPIName__c": "Step1:personId:uppercaseFirstName",
        "%vlocity_namespace%__IsDisabled__c": false,
        "%vlocity_namespace%__IsRequiredForUpsert__c": false,
        "%vlocity_namespace%__MapId__c": "DRUpdatePersonInformationCustom2201",
        "%vlocity_namespace%__TransformValuesMap__c": "{\"UPPER\":\"FirstName\"}",
        "%vlocity_namespace%__UpsertKey__c": false,
        "Name": "DRUpdatePersonInformation",
        "VlocityDataPackType": "SObject",
        "VlocityRecordSObjectType": "%vlocity_namespace%__DRMapItem__c"
    },
    {
        "%vlocity_namespace%__DomainObjectAPIName__c": "Contact",
        "%vlocity_namespace%__DomainObjectCreationOrder__c": 1,
        "%vlocity_namespace%__DomainObjectFieldAPIName__c": "HomePhone",
        "%vlocity_namespace%__InterfaceFieldAPIName__c": "Step1:contactInfoBlock:homePhone",
        "%vlocity_namespace%__IsDisabled__c": false,
        "%vlocity_namespace%__IsRequiredForUpsert__c": false,
        "%vlocity_namespace%__MapId__c": "DRUpdatePersonInformationCustom7230",
        "%vlocity_namespace%__UpsertKey__c": false,
        "Name": "DRUpdatePersonInformation",
        "VlocityDataPackType": "SObject",
        "VlocityRecordSObjectType": "%vlocity_namespace%__DRMapItem__c"
    },
    {
        "%vlocity_namespace%__DomainObjectAPIName__c": "Contact",
        "%vlocity_namespace%__DomainObjectCreationOrder__c": 1,
        "%vlocity_namespace%__DomainObjectFieldAPIName__c": "Home_Phone_2__c",
        "%vlocity_namespace%__InterfaceFieldAPIName__c": "Step1:contactInfoBlock:homePhone",
        "%vlocity_namespace%__IsDisabled__c": false,
        "%vlocity_namespace%__IsRequiredForUpsert__c": false,
        "%vlocity_namespace%__MapId__c": "DRUpdatePersonDetailsCustom6673",
        "%vlocity_namespace%__UpsertKey__c": false,
        "Name": "DRUpdatePersonInformation",
        "VlocityDataPackType": "SObject",
        "VlocityRecordSObjectType": "%vlocity_namespace%__DRMapItem__c"
    },
    {
        "%vlocity_namespace%__DomainObjectAPIName__c": "Contact",
        "%vlocity_namespace%__DomainObjectCreationOrder__c": 1,
        "%vlocity_namespace%__DomainObjectFieldAPIName__c": "Id",
        "%vlocity_namespace%__InterfaceFieldAPIName__c": "ContextId",
        "%vlocity_namespace%__IsDisabled__c": false,
        "%vlocity_namespace%__IsRequiredForUpsert__c": false,
        "%vlocity_namespace%__MapId__c": "DRUpdatePersonInformationCustom6738",
        "%vlocity_namespace%__UpsertKey__c": false,
        "Name": "DRUpdatePersonInformation",
        "VlocityDataPackType": "SObject",
        "VlocityRecordSObjectType": "%vlocity_namespace%__DRMapItem__c"
    },
    {
        "%vlocity_namespace%__ConfigurationValue__c": "FAKEMAPPING",
        "%vlocity_namespace%__DomainObjectAPIName__c": "Contact",
        "%vlocity_namespace%__DomainObjectCreationOrder__c": 1,
        "%vlocity_namespace%__DomainObjectFieldAPIName__c": "Id",
        "%vlocity_namespace%__FilterOperator__c": "=",
        "%vlocity_namespace%__IsDisabled__c": true,
        "%vlocity_namespace%__IsRequiredForUpsert__c": false,
        "%vlocity_namespace%__MapId__c": "DRUpdatePersonDetailsCustom3531",
        "%vlocity_namespace%__UpsertKey__c": false,
        "Name": "DRUpdatePersonInformation",
        "VlocityDataPackType": "SObject",
        "VlocityRecordSObjectType": "%vlocity_namespace%__DRMapItem__c"
    },
    {
        "%vlocity_namespace%__DomainObjectAPIName__c": "Contact",
        "%vlocity_namespace%__DomainObjectCreationOrder__c": 1,
        "%vlocity_namespace%__DomainObjectFieldAPIName__c": "LANGUAGE_CD__c",
        "%vlocity_namespace%__InterfaceFieldAPIName__c": "Step1:personalInfoBlock:language",
        "%vlocity_namespace%__IsDisabled__c": false,
        "%vlocity_namespace%__IsRequiredForUpsert__c": false,
        "%vlocity_namespace%__MapId__c": "DRUpdatePersonDetailsCustom3804",
        "%vlocity_namespace%__UpsertKey__c": false,
        "Name": "DRUpdatePersonInformation",
        "VlocityDataPackType": "SObject",
        "VlocityRecordSObjectType": "%vlocity_namespace%__DRMapItem__c"
    },
    {
        "%vlocity_namespace%__DomainObjectAPIName__c": "Contact",
        "%vlocity_namespace%__DomainObjectCreationOrder__c": 1,
        "%vlocity_namespace%__DomainObjectFieldAPIName__c": "LastName",
        "%vlocity_namespace%__InterfaceFieldAPIName__c": "Step1:nameBlock:lastname",
        "%vlocity_namespace%__IsDisabled__c": false,
        "%vlocity_namespace%__IsRequiredForUpsert__c": false,
        "%vlocity_namespace%__MapId__c": "DRUpdatePersonDetailsCustom3139",
        "%vlocity_namespace%__UpsertKey__c": false,
        "Name": "DRUpdatePersonInformation",
        "VlocityDataPackType": "SObject",
        "VlocityRecordSObjectType": "%vlocity_namespace%__DRMapItem__c"
    },
    {
        "%vlocity_namespace%__DomainObjectAPIName__c": "Contact",
        "%vlocity_namespace%__DomainObjectCreationOrder__c": 1,
        "%vlocity_namespace%__DomainObjectFieldAPIName__c": "LastName",
        "%vlocity_namespace%__InterfaceFieldAPIName__c": "Step1:personId:uppercaseLastName",
        "%vlocity_namespace%__IsDisabled__c": false,
        "%vlocity_namespace%__IsRequiredForUpsert__c": false,
        "%vlocity_namespace%__MapId__c": "DRUpdatePersonInformationCustom2402",
        "%vlocity_namespace%__UpsertKey__c": false,
        "Name": "DRUpdatePersonInformation",
        "VlocityDataPackType": "SObject",
        "VlocityRecordSObjectType": "%vlocity_namespace%__DRMapItem__c"
    },
    {
        "%vlocity_namespace%__DomainObjectAPIName__c": "Contact",
        "%vlocity_namespace%__DomainObjectCreationOrder__c": 1,
        "%vlocity_namespace%__DomainObjectFieldAPIName__c": "MiddleName",
        "%vlocity_namespace%__InterfaceFieldAPIName__c": "Step1:personId:uppercaseMiddleName",
        "%vlocity_namespace%__IsDisabled__c": false,
        "%vlocity_namespace%__IsRequiredForUpsert__c": false,
        "%vlocity_namespace%__MapId__c": "DRUpdatePersonInformationCustom4058",
        "%vlocity_namespace%__UpsertKey__c": false,
        "Name": "DRUpdatePersonInformation",
        "VlocityDataPackType": "SObject",
        "VlocityRecordSObjectType": "%vlocity_namespace%__DRMapItem__c"
    },
    {
        "%vlocity_namespace%__DomainObjectAPIName__c": "Contact",
        "%vlocity_namespace%__DomainObjectCreationOrder__c": 1,
        "%vlocity_namespace%__DomainObjectFieldAPIName__c": "MobilePhone",
        "%vlocity_namespace%__InterfaceFieldAPIName__c": "Step1:contactInfoBlock:mobile",
        "%vlocity_namespace%__IsDisabled__c": false,
        "%vlocity_namespace%__IsRequiredForUpsert__c": false,
        "%vlocity_namespace%__MapId__c": "DRUpdatePersonDetailsCustom7739",
        "%vlocity_namespace%__UpsertKey__c": false,
        "Name": "DRUpdatePersonInformation",
        "VlocityDataPackType": "SObject",
        "VlocityRecordSObjectType": "%vlocity_namespace%__DRMapItem__c"
    },
    {
        "%vlocity_namespace%__DomainObjectAPIName__c": "Contact",
        "%vlocity_namespace%__DomainObjectCreationOrder__c": 1,
        "%vlocity_namespace%__DomainObjectFieldAPIName__c": "Name_1__c",
        "%vlocity_namespace%__InterfaceFieldAPIName__c": "Step1:nameBlock:uppercaseName1",
        "%vlocity_namespace%__IsDisabled__c": false,
        "%vlocity_namespace%__IsRequiredForUpsert__c": false,
        "%vlocity_namespace%__MapId__c": "DRUpdatePersonInformationCustom7640",
        "%vlocity_namespace%__TransformValuesMap__c": "{}",
        "%vlocity_namespace%__UpsertKey__c": false,
        "Name": "DRUpdatePersonInformation",
        "VlocityDataPackType": "SObject",
        "VlocityRecordSObjectType": "%vlocity_namespace%__DRMapItem__c"
    },
    {
        "%vlocity_namespace%__DomainObjectAPIName__c": "Contact",
        "%vlocity_namespace%__DomainObjectCreationOrder__c": 1,
        "%vlocity_namespace%__DomainObjectFieldAPIName__c": "Name_2__c",
        "%vlocity_namespace%__InterfaceFieldAPIName__c": "Step1:nameBlock:uppercaseName2",
        "%vlocity_namespace%__IsDisabled__c": false,
        "%vlocity_namespace%__IsRequiredForUpsert__c": false,
        "%vlocity_namespace%__MapId__c": "DRUpdatePersonDetailsCustom4926",
        "%vlocity_namespace%__UpsertKey__c": false,
        "Name": "DRUpdatePersonInformation",
        "VlocityDataPackType": "SObject",
        "VlocityRecordSObjectType": "%vlocity_namespace%__DRMapItem__c"
    },
    {
        "%vlocity_namespace%__DomainObjectAPIName__c": "Contact",
        "%vlocity_namespace%__DomainObjectCreationOrder__c": 1,
        "%vlocity_namespace%__DomainObjectFieldAPIName__c": "Name_3__c",
        "%vlocity_namespace%__InterfaceFieldAPIName__c": "Step1:nameBlock:uppercaseName3",
        "%vlocity_namespace%__IsDisabled__c": false,
        "%vlocity_namespace%__IsRequiredForUpsert__c": false,
        "%vlocity_namespace%__MapId__c": "DRUpdatePersonDetailsCustom5394",
        "%vlocity_namespace%__UpsertKey__c": false,
        "Name": "DRUpdatePersonInformation",
        "VlocityDataPackType": "SObject",
        "VlocityRecordSObjectType": "%vlocity_namespace%__DRMapItem__c"
    },
    {
        "%vlocity_namespace%__DomainObjectAPIName__c": "Contact",
        "%vlocity_namespace%__DomainObjectCreationOrder__c": 1,
        "%vlocity_namespace%__DomainObjectFieldAPIName__c": "OtherPhone",
        "%vlocity_namespace%__InterfaceFieldAPIName__c": "Step1:contactInfoBlock:otherPhone",
        "%vlocity_namespace%__IsDisabled__c": false,
        "%vlocity_namespace%__IsRequiredForUpsert__c": false,
        "%vlocity_namespace%__MapId__c": "DRUpdatePersonInformationCustom4653",
        "%vlocity_namespace%__UpsertKey__c": false,
        "Name": "DRUpdatePersonInformation",
        "VlocityDataPackType": "SObject",
        "VlocityRecordSObjectType": "%vlocity_namespace%__DRMapItem__c"
    },
    {
        "%vlocity_namespace%__DomainObjectAPIName__c": "Contact",
        "%vlocity_namespace%__DomainObjectCreationOrder__c": 1,
        "%vlocity_namespace%__DomainObjectFieldAPIName__c": "Other_Identifier_Value__c",
        "%vlocity_namespace%__InterfaceFieldAPIName__c": "Step1:identityInfoBlock:otherIdentifierValue",
        "%vlocity_namespace%__IsDisabled__c": false,
        "%vlocity_namespace%__IsRequiredForUpsert__c": false,
        "%vlocity_namespace%__MapId__c": "DRUpdatePersonDetailsCustom6605",
        "%vlocity_namespace%__UpsertKey__c": false,
        "Name": "DRUpdatePersonInformation",
        "VlocityDataPackType": "SObject",
        "VlocityRecordSObjectType": "%vlocity_namespace%__DRMapItem__c"
    },
    {
        "%vlocity_namespace%__DomainObjectAPIName__c": "Contact",
        "%vlocity_namespace%__DomainObjectCreationOrder__c": 1,
        "%vlocity_namespace%__DomainObjectFieldAPIName__c": "Other_Person_Identifier__c",
        "%vlocity_namespace%__InterfaceFieldAPIName__c": "Step1:identityInfoBlock:otherPersonIdentifier",
        "%vlocity_namespace%__IsDisabled__c": false,
        "%vlocity_namespace%__IsRequiredForUpsert__c": false,
        "%vlocity_namespace%__MapId__c": "DRUpdatePersonDetailsCustom8802",
        "%vlocity_namespace%__UpsertKey__c": false,
        "Name": "DRUpdatePersonInformation",
        "VlocityDataPackType": "SObject",
        "VlocityRecordSObjectType": "%vlocity_namespace%__DRMapItem__c"
    },
    {
        "%vlocity_namespace%__DomainObjectAPIName__c": "Contact",
        "%vlocity_namespace%__DomainObjectCreationOrder__c": 1,
        "%vlocity_namespace%__DomainObjectFieldAPIName__c": "Other_Phone_Number__c",
        "%vlocity_namespace%__InterfaceFieldAPIName__c": "Step1:contactInfoBlock:otherPhoneNumber",
        "%vlocity_namespace%__IsDisabled__c": false,
        "%vlocity_namespace%__IsRequiredForUpsert__c": false,
        "%vlocity_namespace%__MapId__c": "DRUpdatePersonDetailsCustom4391",
        "%vlocity_namespace%__UpsertKey__c": false,
        "Name": "DRUpdatePersonInformation",
        "VlocityDataPackType": "SObject",
        "VlocityRecordSObjectType": "%vlocity_namespace%__DRMapItem__c"
    },
    {
        "%vlocity_namespace%__DomainObjectAPIName__c": "Contact",
        "%vlocity_namespace%__DomainObjectCreationOrder__c": 1,
        "%vlocity_namespace%__DomainObjectFieldAPIName__c": "Other_Phone_Type__c",
        "%vlocity_namespace%__InterfaceFieldAPIName__c": "Step1:contactInfoBlock:otherPhoneType",
        "%vlocity_namespace%__IsDisabled__c": false,
        "%vlocity_namespace%__IsRequiredForUpsert__c": false,
        "%vlocity_namespace%__MapId__c": "DRUpdatePersonDetailsCustom2684",
        "%vlocity_namespace%__UpsertKey__c": false,
        "Name": "DRUpdatePersonInformation",
        "VlocityDataPackType": "SObject",
        "VlocityRecordSObjectType": "%vlocity_namespace%__DRMapItem__c"
    },
    {
        "%vlocity_namespace%__DomainObjectAPIName__c": "Contact",
        "%vlocity_namespace%__DomainObjectCreationOrder__c": 1,
        "%vlocity_namespace%__DomainObjectFieldAPIName__c": "PRECISE__c",
        "%vlocity_namespace%__InterfaceFieldAPIName__c": "Step1:identityInfoBlock:precise",
        "%vlocity_namespace%__IsDisabled__c": false,
        "%vlocity_namespace%__IsRequiredForUpsert__c": false,
        "%vlocity_namespace%__MapId__c": "DRUpdatePersonDetailsCustom6466",
        "%vlocity_namespace%__UpsertKey__c": false,
        "Name": "DRUpdatePersonInformation",
        "VlocityDataPackType": "SObject",
        "VlocityRecordSObjectType": "%vlocity_namespace%__DRMapItem__c"
    },
    {
        "%vlocity_namespace%__DomainObjectAPIName__c": "Contact",
        "%vlocity_namespace%__DomainObjectCreationOrder__c": 1,
        "%vlocity_namespace%__DomainObjectFieldAPIName__c": "Passport__c",
        "%vlocity_namespace%__InterfaceFieldAPIName__c": "Step1:identityInfoBlock:passport",
        "%vlocity_namespace%__IsDisabled__c": false,
        "%vlocity_namespace%__IsRequiredForUpsert__c": false,
        "%vlocity_namespace%__MapId__c": "DRUpdatePersonDetailsCustom3715",
        "%vlocity_namespace%__UpsertKey__c": false,
        "Name": "DRUpdatePersonInformation",
        "VlocityDataPackType": "SObject",
        "VlocityRecordSObjectType": "%vlocity_namespace%__DRMapItem__c"
    },
    {
        "%vlocity_namespace%__DomainObjectAPIName__c": "Contact",
        "%vlocity_namespace%__DomainObjectCreationOrder__c": 1,
        "%vlocity_namespace%__DomainObjectFieldAPIName__c": "Person_ID__c",
        "%vlocity_namespace%__InterfaceFieldAPIName__c": "Step1:identityInfoBlock:externalPersonId",
        "%vlocity_namespace%__IsDisabled__c": false,
        "%vlocity_namespace%__IsRequiredForUpsert__c": false,
        "%vlocity_namespace%__MapId__c": "DRUpdatePersonInformationCustom3845",
        "%vlocity_namespace%__UpsertKey__c": false,
        "Name": "DRUpdatePersonInformation",
        "VlocityDataPackType": "SObject",
        "VlocityRecordSObjectType": "%vlocity_namespace%__DRMapItem__c"
    },
    {
        "%vlocity_namespace%__DomainObjectAPIName__c": "Contact",
        "%vlocity_namespace%__DomainObjectCreationOrder__c": 1,
        "%vlocity_namespace%__DomainObjectFieldAPIName__c": "Phone",
        "%vlocity_namespace%__InterfaceFieldAPIName__c": "Step1:contactInfoBlock:phone",
        "%vlocity_namespace%__IsDisabled__c": false,
        "%vlocity_namespace%__IsRequiredForUpsert__c": false,
        "%vlocity_namespace%__MapId__c": "DRUpdatePersonDetailsCustom5469",
        "%vlocity_namespace%__UpsertKey__c": false,
        "Name": "DRUpdatePersonInformation",
        "VlocityDataPackType": "SObject",
        "VlocityRecordSObjectType": "%vlocity_namespace%__DRMapItem__c"
    },
    {
        "%vlocity_namespace%__DomainObjectAPIName__c": "Contact",
        "%vlocity_namespace%__DomainObjectCreationOrder__c": 1,
        "%vlocity_namespace%__DomainObjectFieldAPIName__c": "Postal__c",
        "%vlocity_namespace%__InterfaceFieldAPIName__c": "Step1:personalInfoBlock:postal",
        "%vlocity_namespace%__IsDisabled__c": false,
        "%vlocity_namespace%__IsRequiredForUpsert__c": false,
        "%vlocity_namespace%__MapId__c": "DRUpdatePersonDetailsCustom8978",
        "%vlocity_namespace%__UpsertKey__c": false,
        "Name": "DRUpdatePersonInformation",
        "VlocityDataPackType": "SObject",
        "VlocityRecordSObjectType": "%vlocity_namespace%__DRMapItem__c"
    },
    {
        "%vlocity_namespace%__DomainObjectAPIName__c": "Contact",
        "%vlocity_namespace%__DomainObjectCreationOrder__c": 1,
        "%vlocity_namespace%__DomainObjectFieldAPIName__c": "STATE_ID__c",
        "%vlocity_namespace%__InterfaceFieldAPIName__c": "Step1:identityInfoBlock:stateId",
        "%vlocity_namespace%__IsDisabled__c": false,
        "%vlocity_namespace%__IsRequiredForUpsert__c": false,
        "%vlocity_namespace%__MapId__c": "DRUpdatePersonDetailsCustom6275",
        "%vlocity_namespace%__UpsertKey__c": false,
        "Name": "DRUpdatePersonInformation",
        "VlocityDataPackType": "SObject",
        "VlocityRecordSObjectType": "%vlocity_namespace%__DRMapItem__c"
    },
    {
        "%vlocity_namespace%__DomainObjectAPIName__c": "Contact",
        "%vlocity_namespace%__DomainObjectCreationOrder__c": 1,
        "%vlocity_namespace%__DomainObjectFieldAPIName__c": "State__c",
        "%vlocity_namespace%__InterfaceFieldAPIName__c": "Step1:personalInfoBlock:state",
        "%vlocity_namespace%__IsDisabled__c": false,
        "%vlocity_namespace%__IsRequiredForUpsert__c": false,
        "%vlocity_namespace%__MapId__c": "DRUpdatePersonDetailsCustom1694",
        "%vlocity_namespace%__UpsertKey__c": false,
        "Name": "DRUpdatePersonInformation",
        "VlocityDataPackType": "SObject",
        "VlocityRecordSObjectType": "%vlocity_namespace%__DRMapItem__c"
    },
    {
        "%vlocity_namespace%__DomainObjectAPIName__c": "Contact",
        "%vlocity_namespace%__DomainObjectCreationOrder__c": 1,
        "%vlocity_namespace%__DomainObjectFieldAPIName__c": "Suffix",
        "%vlocity_namespace%__InterfaceFieldAPIName__c": "Step1:personId:uppercaseSuffix",
        "%vlocity_namespace%__IsDisabled__c": false,
        "%vlocity_namespace%__IsRequiredForUpsert__c": false,
        "%vlocity_namespace%__MapId__c": "DRUpdatePersonInformationCustom3196",
        "%vlocity_namespace%__UpsertKey__c": false,
        "Name": "DRUpdatePersonInformation",
        "VlocityDataPackType": "SObject",
        "VlocityRecordSObjectType": "%vlocity_namespace%__DRMapItem__c"
    },
    {
        "%vlocity_namespace%__DomainObjectAPIName__c": "Formula",
        "%vlocity_namespace%__DomainObjectCreationOrder__c": 0,
        "%vlocity_namespace%__DomainObjectFieldAPIName__c": "Formula",
        "%vlocity_namespace%__FormulaOrder__c": 1,
        "%vlocity_namespace%__IsDisabled__c": false,
        "%vlocity_namespace%__IsRequiredForUpsert__c": false,
        "%vlocity_namespace%__MapId__c": "DRUpdatePersonInformationCustom4666",
        "%vlocity_namespace%__UpsertKey__c": false,
        "Name": "DRUpdatePersonInformation",
        "VlocityDataPackType": "SObject",
        "VlocityRecordSObjectType": "%vlocity_namespace%__DRMapItem__c"
    }
]