[
    {
        "%vlocity_namespace%__DomainObjectAPIName__c": "Contact",
        "%vlocity_namespace%__DomainObjectCreationOrder__c": 1,
        "%vlocity_namespace%__DomainObjectFieldAPIName__c": "Email_Address__c",
        "%vlocity_namespace%__InterfaceFieldAPIName__c": "customerInformation:createNewCustomerBlock:emailAddress",
        "%vlocity_namespace%__IsDisabled__c": false,
        "%vlocity_namespace%__IsRequiredForUpsert__c": false,
        "%vlocity_namespace%__MapId__c": "DRCreateNewCustomerCustom4048",
        "%vlocity_namespace%__UpsertKey__c": false,
        "Name": "DRCreateNewCustomer",
        "VlocityDataPackType": "SObject",
        "VlocityRecordSObjectType": "%vlocity_namespace%__DRMapItem__c"
    },
    {
        "%vlocity_namespace%__DomainObjectAPIName__c": "Contact",
        "%vlocity_namespace%__DomainObjectCreationOrder__c": 1,
        "%vlocity_namespace%__DomainObjectFieldAPIName__c": "FirstName",
        "%vlocity_namespace%__InterfaceFieldAPIName__c": "customerInformation:createNewCustomerBlock:firstName",
        "%vlocity_namespace%__IsDisabled__c": false,
        "%vlocity_namespace%__IsRequiredForUpsert__c": false,
        "%vlocity_namespace%__MapId__c": "DRCreateNewCustomerCustom427",
        "%vlocity_namespace%__UpsertKey__c": false,
        "Name": "DRCreateNewCustomer",
        "VlocityDataPackType": "SObject",
        "VlocityRecordSObjectType": "%vlocity_namespace%__DRMapItem__c"
    },
    {
        "%vlocity_namespace%__ConfigurationValue__c": "FAKEMAPPING",
        "%vlocity_namespace%__DomainObjectAPIName__c": "Contact",
        "%vlocity_namespace%__DomainObjectCreationOrder__c": 1,
        "%vlocity_namespace%__DomainObjectFieldAPIName__c": "Id",
        "%vlocity_namespace%__FilterOperator__c": "=",
        "%vlocity_namespace%__IsDisabled__c": true,
        "%vlocity_namespace%__IsRequiredForUpsert__c": false,
        "%vlocity_namespace%__MapId__c": "DRCreateNewCustomerCustom5740",
        "%vlocity_namespace%__UpsertKey__c": false,
        "Name": "DRCreateNewCustomer",
        "VlocityDataPackType": "SObject",
        "VlocityRecordSObjectType": "%vlocity_namespace%__DRMapItem__c"
    },
    {
        "%vlocity_namespace%__DomainObjectAPIName__c": "Contact",
        "%vlocity_namespace%__DomainObjectCreationOrder__c": 1,
        "%vlocity_namespace%__DomainObjectFieldAPIName__c": "LastName",
        "%vlocity_namespace%__InterfaceFieldAPIName__c": "customerInformation:createNewCustomerBlock:lastName",
        "%vlocity_namespace%__IsDisabled__c": false,
        "%vlocity_namespace%__IsRequiredForUpsert__c": false,
        "%vlocity_namespace%__MapId__c": "DRCreateNewCustomerCustom4461",
        "%vlocity_namespace%__UpsertKey__c": false,
        "Name": "DRCreateNewCustomer",
        "VlocityDataPackType": "SObject",
        "VlocityRecordSObjectType": "%vlocity_namespace%__DRMapItem__c"
    },
    {
        "%vlocity_namespace%__DomainObjectAPIName__c": "Contact",
        "%vlocity_namespace%__DomainObjectCreationOrder__c": 1,
        "%vlocity_namespace%__DomainObjectFieldAPIName__c": "MiddleName",
        "%vlocity_namespace%__InterfaceFieldAPIName__c": "customerInformation:createNewCustomerBlock:middleName",
        "%vlocity_namespace%__IsDisabled__c": false,
        "%vlocity_namespace%__IsRequiredForUpsert__c": false,
        "%vlocity_namespace%__MapId__c": "DRCreateNewCustomerCustom1286",
        "%vlocity_namespace%__UpsertKey__c": false,
        "Name": "DRCreateNewCustomer",
        "VlocityDataPackType": "SObject",
        "VlocityRecordSObjectType": "%vlocity_namespace%__DRMapItem__c"
    },
    {
        "%vlocity_namespace%__DomainObjectAPIName__c": "Contact",
        "%vlocity_namespace%__DomainObjectCreationOrder__c": 1,
        "%vlocity_namespace%__DomainObjectFieldAPIName__c": "Phone",
        "%vlocity_namespace%__InterfaceFieldAPIName__c": "customerInformation:createNewCustomerBlock:primaryPhoneNumber",
        "%vlocity_namespace%__IsDisabled__c": false,
        "%vlocity_namespace%__IsRequiredForUpsert__c": false,
        "%vlocity_namespace%__MapId__c": "DRCreateNewCustomerCustom6837",
        "%vlocity_namespace%__UpsertKey__c": false,
        "Name": "DRCreateNewCustomer",
        "VlocityDataPackType": "SObject",
        "VlocityRecordSObjectType": "%vlocity_namespace%__DRMapItem__c"
    },
    {
        "%vlocity_namespace%__DomainObjectAPIName__c": "Contact",
        "%vlocity_namespace%__DomainObjectCreationOrder__c": 1,
        "%vlocity_namespace%__DomainObjectFieldAPIName__c": "Suffix",
        "%vlocity_namespace%__InterfaceFieldAPIName__c": "customerInformation:createNewCustomerBlock:suffix",
        "%vlocity_namespace%__IsDisabled__c": false,
        "%vlocity_namespace%__IsRequiredForUpsert__c": false,
        "%vlocity_namespace%__MapId__c": "DRCreateNewCustomerCustom8241",
        "%vlocity_namespace%__UpsertKey__c": false,
        "Name": "DRCreateNewCustomer",
        "VlocityDataPackType": "SObject",
        "VlocityRecordSObjectType": "%vlocity_namespace%__DRMapItem__c"
    }
]