{
    "ContextId": null,
    "FieldOrders": {
        "SelectableItems1": null
    },
    "timeStamp": null,
    "userId": null,
    "userName": null,
    "userProfile": null,
    "userTimeZone": null,
    "vlcPersistentComponent": {
    },
    "vlcTimeTracking": {
        "DataRaptorExtractFieldOrders": null,
        "FieldOrders": null,
        "ScriptConstants": null
    }
}